0.1376840025186539 0.8115350008010864 0.5688779950141907
0.2339169979095459 0.7474139928817749 0.6223850250244141
0.3192360103130341 0.6739000082015991 0.6668180227279663
0.4448080062866211 0.573477029800415 0.6870309710502625
0.5740129947662354 0.4473580121994019 0.6860010027885437
0.6190299987792969 0.3512510061264038 0.702767014503479
0.7060980200767517 0.1959670037031174 0.6806650161743164
0.7360129952430725 0.05018369853496552 0.6759690046310425
0.7898719906806946 -0.01086360029876232 0.6140279769897461
0.8356379866600037 -0.119877003133297 0.53581702709198
0.8189190030097961 -0.2250829935073853 0.527446985244751
