-0.8771960139274597 -0.1728519946336746 -0.4474500119686127
-0.861611008644104 -0.07613930106163025 -0.5029060244560242
-0.8344190120697021 0.0110719995573163 -0.551393985748291
-0.8171399831771851 0.1119460016489029 -0.5663040280342102
-0.8033869862556458 0.2539379894733429 -0.5378699898719788
-0.8016679883003235 0.3786979913711548 -0.4630950093269348
-0.743615984916687 0.5172460079193115 -0.4224030077457428
-0.7034450173377991 0.6043469905853271 -0.3743019998073578
-0.6348090171813965 0.6992809772491455 -0.3305230140686035
-0.5664389729499817 0.7983520030975342 -0.2072429955005646
-0.4866960048675537 0.8632209897041321 -0.1343680024147034
-0.4192369878292084 0.9077370166778564 -0.03769790008664131
-0.2952300012111664 0.9535999894142151 0.0613069012761116
-0.1715890020132065 0.9732720255851746 0.1564169973134995
-0.08484990149736404 0.9529439806938171 0.2907379865646362
